Division,WeightClassKg,Place,Name,Team,BodyweightKg,Best3SquatKg,Best3BenchKg,Best3DeadliftKg,TotalKg,Equipment,Event,Sex
Boys,51.71,1,Angel Flores #2,Jourdanton,51.26,120.2,56.7,133.81,310.71,Single-ply,SBD,M
Boys,51.71,2,Silverio Mendoza,Crystal City,51.17,108.86,52.16,133.81,294.84,Single-ply,SBD,M
Boys,51.71,3,Miguel Galvez,Somerset,49.9,97.52,52.16,129.27,278.96,Single-ply,SBD,M
Boys,51.71,4,Eddie Macias,Laredo Nixon,46.81,108.86,54.43,90.72,254.01,Single-ply,SBD,M
Boys,51.71,DQ,Ramiro Trevino,Laredo Nixon,48.53,131.54,72.57,,,Single-ply,SBD,M
Boys,51.71,DQ,Austin Hardy,Somerset,50.85,,,,,Single-ply,SBD,M
Boys,55.79,1,Adrian Garcia,Pearsall,55.39,165.56,95.25,183.7,444.52,Single-ply,SBD,M
Boys,55.79,2,Devyn Hernandez,Somerset,55.79,136.08,97.52,154.22,387.82,Single-ply,SBD,M
Boys,55.79,3,Edward Devora,Castroville Medina Valley,54.94,124.74,79.38,151.95,356.07,Single-ply,SBD,M
Boys,55.79,4,Christian Campos,Uvalde,55.34,113.4,63.5,131.54,308.44,Single-ply,SBD,M
Boys,59.87,1,Rodney Garcia,Carrizo Springs,59.42,183.7,102.06,185.97,471.74,Single-ply,SBD,M
Boys,59.87,2,Jaime Rodriguez,Jourdanton,59.47,183.7,79.38,170.1,433.18,Single-ply,SBD,M
Boys,59.87,3,Ismael Franco,Crystal City,59.87,147.42,102.06,172.37,421.84,Single-ply,SBD,M
Boys,59.87,4,Casey Fuentes,Jourdanton,59.87,163.29,97.52,145.15,405.97,Single-ply,SBD,M
Boys,59.87,5,Jaime Ramirez,Rocksprings,56.25,140.61,83.91,138.35,362.87,Single-ply,SBD,M
Boys,67.13,1,Josue Tobias,Laredo Nixon,67.13,226.8,138.35,240.4,605.55,Single-ply,SBD,M
Boys,67.13,2,Domingo Zapata,Somerset,64.42,215.46,142.88,170.1,528.44,Single-ply,SBD,M
Boys,67.13,3,Aaron Realme,Pearsall,67.13,208.65,97.52,215.46,521.63,Single-ply,SBD,M
Boys,67.13,4,Arturo Yture,Somerset,66.71,208.65,106.59,190.51,505.76,Single-ply,SBD,M
Boys,67.13,5,DJ Martinez,Dilley,63.5,190.51,113.4,170.1,474,Single-ply,SBD,M
Boys,67.13,6,Marco Gomez,Crystal City,65.05,183.7,104.33,172.37,460.4,Single-ply,SBD,M
Boys,67.13,7,Nick Rodriguez #1,Dilley,66.71,145.15,97.52,179.17,421.84,Single-ply,SBD,M
Boys,67.13,8,Joseph Lozano,Laredo Nixon,66.23,151.95,79.38,174.63,405.97,Single-ply,SBD,M
Boys,67.13,9,Ben Uribe,Jourdanton,59.92,156.49,90.72,149.69,396.89,Single-ply,SBD,M
Boys,67.13,10,Felix Ruiz,Laredo Nixon,66.13,154.22,88.45,151.95,394.63,Single-ply,SBD,M
Boys,67.13,11,Enrique Garza,Dilley,66.29,158.76,68.04,165.56,392.36,Single-ply,SBD,M
Boys,67.13,12,Levi Gutierrez,Uvalde,63.08,145.15,81.65,145.15,371.95,Single-ply,SBD,M
Boys,67.13,13,Jon Michael Lomas,Crystal City,65.86,151.95,74.84,142.88,369.68,Single-ply,SBD,M
Boys,67.13,14,Dominik Espinoza,Center Point,60.83,142.88,79.38,145.15,367.41,Single-ply,SBD,M
Boys,67.13,15,Angel Cordova,Rocksprings,61.24,142.88,86.18,138.35,367.41,Single-ply,SBD,M
Boys,67.13,16,Ethan Ozuna,Center Point,63.55,140.61,77.11,147.42,365.14,Single-ply,SBD,M
Boys,67.13,17,Josh Pawlik,Pearsall,64.46,124.74,74.84,161.03,360.61,Single-ply,SBD,M
Boys,67.13,18,Joey Cardenas,Carrizo Springs,66.74,124.74,68.04,158.76,351.53,Single-ply,SBD,M
Boys,67.13,19,Chance Cabiness,Center Point,65.34,133.81,72.57,127.01,333.39,Single-ply,SBD,M
Boys,67.13,20,Tomas Montellano,Crystal City,62.73,120.2,72.57,129.27,322.05,Single-ply,SBD,M
Boys,67.13,DQ,Diego Perez #1,Rocksprings,63.56,,,,,Single-ply,SBD,M
Boys,74.84,1,Brandon Rios #2,Somerset,73.94,199.58,111.13,215.46,526.17,Single-ply,SBD,M
Boys,74.84,2,Dylan Delgado,Somerset,73.51,204.12,115.67,185.97,505.76,Single-ply,SBD,M
Boys,74.84,3,Jacob Meis,Castroville Medina Valley,70.33,181.44,111.13,201.85,494.42,Single-ply,SBD,M
Boys,74.84,4,Gil Garcia,Crystal City,74.25,185.97,92.99,199.58,478.54,Single-ply,SBD,M
Boys,74.84,5,John Reyes #1,Pearsall,74.39,138.35,104.33,226.8,469.47,Single-ply,SBD,M
Boys,74.84,6,Luke Janosky,Castroville Medina Valley,67.59,176.9,102.06,188.24,467.2,Single-ply,SBD,M
Boys,74.84,7,Sol Rodriguez,Pearsall,72.53,167.83,104.33,183.7,455.86,Single-ply,SBD,M
Boys,74.84,8,Eric Gonzalez,Carrizo Springs,73.06,163.29,92.99,188.24,444.52,Single-ply,SBD,M
Boys,74.84,9,Mario Benavidez,Rocksprings,73.96,158.76,83.91,197.31,439.98,Single-ply,SBD,M
Boys,74.84,10,Frankie Mendez,Carrizo Springs,70.33,154.22,92.99,172.37,419.57,Single-ply,SBD,M
Boys,74.84,11,Juergen Lapham,Center Point,73.94,151.95,90.72,167.83,410.5,Single-ply,SBD,M
Boys,74.84,12,Joseph Martinez,Somerset,73.51,142.88,86.18,174.63,403.7,Single-ply,SBD,M
Boys,74.84,13,Ricky Gomez #2,Laredo Nixon,71.94,133.81,83.91,165.56,383.29,Single-ply,SBD,M
Boys,74.84,14,Cesar Franco,Crystal City,74.42,136.08,77.11,170.1,383.29,Single-ply,SBD,M
Boys,74.84,15,Blake Bentley,Pearsall,68.06,131.54,72.57,113.4,317.51,Single-ply,SBD,M
Boys,74.84,16,Jeremiah Munoz,Uvalde,68.04,99.79,61.23,133.81,294.84,Single-ply,SBD,M
Boys,74.84,DQ,Matt Fanno,Jourdanton,71.24,219.99,,,,Single-ply,SBD,M
Boys,82.1,1,Nathan Garcia,Jourdanton,80.29,301.64,131.54,267.62,700.8,Single-ply,SBD,M
Boys,82.1,2,Isaiah Garza,Somerset,81.21,226.8,147.42,244.94,619.15,Single-ply,SBD,M
Boys,82.1,3,Anthony Estrada,Somerset,76.2,235.87,102.06,235.87,573.79,Single-ply,SBD,M
Boys,82.1,4,Zach Vyvlecka,Jourdanton,80.33,226.8,113.4,231.33,571.53,Single-ply,SBD,M
Boys,82.1,5,Adrian Sustaita,Castroville Medina Valley,79.88,206.38,117.93,215.46,539.77,Single-ply,SBD,M
Boys,82.1,6,Steven Mireles,Castroville Medina Valley,78.93,183.7,106.59,195.04,485.34,Single-ply,SBD,M
Boys,82.1,7,Isaac Ramos,Jourdanton,81.19,199.58,111.13,170.1,480.81,Single-ply,SBD,M
Boys,82.1,8,Josh Cooper,Center Point,80.78,183.7,106.59,181.44,471.74,Single-ply,SBD,M
Boys,82.1,9,Manny Arguijo,Del Rio,78.93,183.7,102.06,183.7,469.47,Single-ply,SBD,M
Boys,82.1,10,Mike Patronis,Del Rio,76.2,158.76,102.06,204.12,464.93,Single-ply,SBD,M
Boys,82.1,11,Jesus Palmerin,Laredo Nixon,75.34,170.1,97.52,188.24,455.86,Single-ply,SBD,M
Boys,82.1,12,Luis Frausto,Del Rio,79.74,158.76,108.86,185.97,453.59,Single-ply,SBD,M
Boys,82.1,13,Luis Rodriguez,Laredo Nixon,77.66,174.63,83.91,181.44,439.98,Single-ply,SBD,M
Boys,82.1,14,Lorenzo Comacho,Uvalde,81.19,77.11,56.7,95.25,229.06,Single-ply,SBD,M
Boys,82.1,DQ,Ritchie San Miguel,Pearsall,80.32,131.54,,,,Single-ply,SBD,M
Boys,82.1,DQ,Michael Rodriuez,Del Rio,79.88,161.03,,,,Single-ply,SBD,M
Boys,82.1,DQ,Dyllan Maldonado,Dilley,79.9,,,,,Single-ply,SBD,M
Boys,82.1,DQ,Matthew Embers,Carrizo Springs,80.3,,,,,Single-ply,SBD,M
Boys,82.1,DQ,Beaul Medrano,Dilley,80.79,142.88,,,,Single-ply,SBD,M
Boys,82.1,DQ,Jordan Valdez,Jourdanton,81.2,192.78,124.74,,,Single-ply,SBD,M
Boys,82.1,DQ,Noal Leal,Pearsall,81.19,,,,,Single-ply,SBD,M
Boys,82.1,DQ,John Paul Cordova,Rocksprings,81.65,185.97,115.67,,,Single-ply,SBD,M
Boys,89.81,1,Brandon Atnipp,Del Rio,82.16,217.72,161.03,242.67,621.42,Single-ply,SBD,M
Boys,89.81,2,John Engelmann,Jourdanton,88.45,226.8,129.27,208.65,564.72,Single-ply,SBD,M
Boys,89.81,3,Meme Moreno,Somerset,86.64,249.48,127.01,165.56,542.04,Single-ply,SBD,M
Boys,89.81,4,Mario Mendoza,Carrizo Springs,86.65,204.12,127.01,195.04,526.17,Single-ply,SBD,M
Boys,89.81,5,Marco Munoz,Laredo Nixon,86.18,204.12,102.06,210.92,517.1,Single-ply,SBD,M
Boys,89.81,6,Azel Dimerry,Del Rio,87.59,226.8,102.06,188.24,517.1,Single-ply,SBD,M
Boys,89.81,7,Mark Puente,Crystal City,84.91,210.92,122.47,158.76,492.15,Single-ply,SBD,M
Boys,89.81,8,Houston Crawford,Castroville Medina Valley,88.49,197.31,108.86,179.17,485.34,Single-ply,SBD,M
Boys,89.81,9,Abel Hernandez,Del Rio,88.93,161.03,120.2,174.63,455.86,Single-ply,SBD,M
Boys,89.81,10,Jonathan Davalos,Crystal City,85.41,185.97,111.13,149.69,446.79,Single-ply,SBD,M
Boys,89.81,11,Steven Muzquiz,Crystal City,84.01,129.27,99.79,170.1,399.16,Single-ply,SBD,M
Boys,89.81,12,Joshua Tinahero,Somerset,87.55,149.69,68.04,170.1,387.82,Single-ply,SBD,M
Boys,89.81,13,David Castro,Carrizo Springs,84.86,147.42,90.72,142.88,381.02,Single-ply,SBD,M
Boys,89.81,14,Juan Oyverides,Carrizo Springs,87.14,131.54,72.57,151.95,356.07,Single-ply,SBD,M
Boys,89.81,15,Lino Castro,Crystal City,89.09,127.01,65.77,120.2,312.98,Single-ply,SBD,M
Boys,89.81,DQ,Jose Rodriguez #11,Del Rio,88.02,147.42,,,,Single-ply,SBD,M
Boys,89.81,DQ,Steve Medrano,Dilley,82.46,226.8,142.88,,,Single-ply,SBD,M
Boys,99.79,1,Mark Sustaita,Castroville Medina Valley,91.63,247.21,145.15,222.26,614.62,Single-ply,SBD,M
Boys,99.79,2,Victor Lozano,Laredo Nixon,93.49,235.87,113.4,206.38,555.65,Single-ply,SBD,M
Boys,99.79,3,Manuel Vacca,Jourdanton,93.44,229.06,124.74,188.24,542.04,Single-ply,SBD,M
Boys,99.79,4,Jose Garcia #8,Somerset,95.74,213.19,108.86,195.04,517.1,Single-ply,SBD,M
Boys,99.79,5,Ethan Chapa,Center Point,90.72,192.78,117.93,190.51,501.22,Single-ply,SBD,M
Boys,99.79,6,Cruz Montez,Carrizo Springs,92.11,190.51,120.2,174.63,485.34,Single-ply,SBD,M
Boys,99.79,7,Joshua Cuevas,Pearsall,92.12,172.37,108.86,204.12,485.34,Single-ply,SBD,M
Boys,99.79,8,Jeffery De Leon,Carrizo Springs,96.16,172.37,113.4,199.58,485.34,Single-ply,SBD,M
Boys,99.79,9,George Perez,Somerset,97.98,176.9,117.93,158.76,453.59,Single-ply,SBD,M
Boys,99.79,10,Dizon Rodriguez,Del Rio,94.86,163.29,104.33,174.63,442.25,Single-ply,SBD,M
Boys,99.79,11,Jaydon Jasso,Del Rio,98.88,124.74,86.18,210.92,421.84,Single-ply,SBD,M
Boys,99.79,12,Dylan Lutz,Hondo,99.36,176.9,83.91,156.49,417.3,Single-ply,SBD,M
Boys,99.79,DQ,Jose Mendoza #1,Del Rio,98.88,181.44,,,,Single-ply,SBD,M
Boys,109.77,1,Eddie Moreno,Somerset,108.88,249.48,156.49,233.6,639.57,Single-ply,SBD,M
Boys,109.77,2,Emilio Alvarado,Crystal City,102.83,219.99,136.08,185.97,542.04,Single-ply,SBD,M
Boys,109.77,3,Abel Mendoza,Laredo Nixon,107.55,208.65,129.27,188.24,526.17,Single-ply,SBD,M
Boys,109.77,4,Mando Veliz,Del Rio,108.93,197.31,106.59,195.04,498.95,Single-ply,SBD,M
Boys,109.77,5,Jarod Rodriguez,Carrizo Springs,105.29,136.08,72.57,149.69,358.34,Single-ply,SBD,M
Boys,109.77,DQ,Mark Ruiz,Crystal City,109,,,,,Single-ply,SBD,M
Boys,124.74,1,James Woods,Somerset,119.29,333.39,142.88,272.16,748.43,Single-ply,SBD,M
Boys,124.74,2,Francisco Torres,Laredo Nixon,118.48,240.4,138.35,244.94,623.69,Single-ply,SBD,M
Boys,124.74,3,Javier Gallegos,Del Rio,123.88,215.46,102.06,183.7,501.22,Single-ply,SBD,M
Boys,124.74,4,Jason Gallegos,Carrizo Springs,110.68,188.24,120.2,179.17,487.61,Single-ply,SBD,M
Boys,124.74,5,Abe Hinojosa,Del Rio,118.89,174.63,86.18,181.44,442.25,Single-ply,SBD,M
Boys,124.74,6,Ethan Rodriguez,Pearsall,111.63,156.49,83.91,149.69,390.09,Single-ply,SBD,M
Boys,124.74,7,Marcos Gomez,Pearsall,112.55,129.27,90.72,149.69,369.68,Single-ply,SBD,M
Boys,124.74,DQ,Migel Garcia,Uvalde,120.7,213.19,133.81,,,Single-ply,SBD,M
Boys,124.74+,1,Edward Gonzalez,Crystal City,130.36,317.51,151.95,238.14,707.6,Single-ply,SBD,M
Boys,124.74+,2,Mario Chavez,Carrizo Springs,190.51,247.21,179.17,233.6,659.98,Single-ply,SBD,M
Boys,124.74+,3,Javier De Leon,Somerset,147.42,272.16,147.42,190.51,610.08,Single-ply,SBD,M
Boys,124.74+,4,Mike Kessler,Castroville Medina Valley,145.18,240.4,131.54,213.19,585.13,Single-ply,SBD,M
Boys,124.74+,5,Adrian Lomas,Crystal City,126.23,222.26,145.15,183.7,551.11,Single-ply,SBD,M
Boys,124.74+,6,Joseph Rodriguez,Del Rio,145.21,183.7,111.13,213.19,508.02,Single-ply,SBD,M
Boys,124.74+,7,Isaiah Reyna,Somerset,142.43,172.37,77.11,181.44,430.91,Single-ply,SBD,M
Boys,124.74+,DQ,Nate Serna,Jourdanton,130.65,283.5,,,,Single-ply,SBD,M
Boys,124.74+,DQ,Odie De La Rosa,Castroville Medina Valley,146.56,260.82,170.1,,,Single-ply,SBD,M
Boys,124.74+,DQ,Tino Torres,Carrizo Springs,129.73,249.48,,,,Single-ply,SBD,M
Boys,,NS,Rene Alvarado,Center Point,,,,,,Single-ply,SBD,M
Boys,,NS,Bosley Fuentes,Rocksprings,,,,,,Single-ply,SBD,M
Boys,,NS,Josh Alderete,Uvalde,,,,,,Single-ply,SBD,M
Boys,,NS,Jalen Victoriano,Uvalde,,,,,,Single-ply,SBD,M
