Place,Sex,Name,Event,Division,WeightClassKg,Equipment,BirthYear,State,BodyweightKg,Squat1Kg,Squat2Kg,Squat3Kg,Best3SquatKg,Bench1Kg,Bench2Kg,Bench3Kg,Best3BenchKg,Deadlift1Kg,Deadlift2Kg,Deadlift3Kg,Best3DeadliftKg,TotalKg
1,M,Felix Moreno,B,MR-O,120,Raw,1991,TX,119.98,,,,,175,187.5,195,195.0,,,,,195
1,F,Lisa Solis,B,FR-M1a,84+,Raw,1975,TX,91.66,,,,,45,50,-57.5,50.0,,,,,50
1,F,Lisa Solis,B,FR-O,84+,Raw,1975,TX,91.66,,,,,45,50,-57.5,50.0,,,,,50
1,M,Steve Stout,SBD,M-M2a,93,Single-ply,1963,KS,92.66,180,197.5,205,205.0,165,172.5,182.5,182.5,225,242.5,250,250.0,637.5
1,M,Rayyan Kubbar,SBD,MR-Jr,66,Raw,1995,OK,64.82,117.5,-125,-125,117.5,72.5,82.5,-85,82.5,175,-182.5,-182.5,175.0,375
1,M,Parker Reid,SBD,MR-Jr,83,Raw,1995,OK,81.20,207.5,217.5,227.5,227.5,127.5,137.5,142.5,142.5,240,250,260,260.0,630
2,M,Christian Perez,SBD,MR-Jr,83,Raw,1995,OK,82.84,185,195,200,200.0,135,142.5,-150,142.5,205,220,227.5,227.5,570
3,M,Steven Pippin,SBD,MR-Jr,83,Raw,1994,OK,82.66,165,172.5,182.5,182.5,100,-107.5,107.5,107.5,205,220,227.5,227.5,517.5
4,M,Ahmed Alabdan,SBD,MR-Jr,83,Raw,1993,AR,81.82,165,175,185,185.0,95,100,105,105.0,197.5,212.5,225,225.0,515
1,M,David Long #1,SBD,MR-Jr,93,Raw,1994,OK,90.10,205,220,230,230.0,125,140,145,145.0,250,270,285,285.0,660
2,M,Caleb Harris,SBD,MR-Jr,93,Raw,1996,OK,92.86,205,217.5,240,240.0,117.5,132.5,145,145.0,227.5,250,272.5,272.5,657.5
3,M,Matt Ferrell,SBD,MR-Jr,93,Raw,1996,OK,92.98,217.5,232.5,245,245.0,132.5,-137.5,137.5,137.5,237.5,250,255,255.0,637.5
4,M,Sergio Sanchez,SBD,MR-Jr,93,Raw,1995,OK,91.12,152.5,165,170,170.0,87.5,102.5,112.5,112.5,195,212.5,217.5,217.5,500
5,M,Jonathon Bowie,SBD,MR-Jr,93,Raw,1994,OK,91.12,145,155,172.5,172.5,102.5,115,-120,115.0,165,182.5,200,200.0,487.5
1,M,Thomas Saul,SBD,MR-Jr,105,Raw,1993,OK,101.54,207.5,220,-230,220.0,132.5,142.5,150,150.0,250,267.5,-275,267.5,637.5
2,M,Manuel Guadian,SBD,MR-Jr,105,Raw,1994,TX,104.10,202.5,-220,-220,202.5,132.5,140,145,145.0,230,245,-260,245.0,592.5
3,M,Reyhan Eusufzai,SBD,MR-Jr,105,Raw,1994,OK,101.28,190,205,215,215.0,125,137.5,140,140.0,202.5,215,227.5,227.5,582.5
1,M,Nicholas Tankersley,SBD,MR-O,66,Raw,1988,OK,65.68,130,140,-145,140.0,87.5,95,-102.5,95.0,180,187.5,195,195.0,430
1,M,Ryan Kropp,SBD,MR-O,74,Raw,1992,OK,73.48,177.5,190,195,195.0,125,-132.5,137.5,137.5,215,227.5,240,240.0,572.5
2,M,Trystan Self,SBD,MR-O,74,Raw,1997,OK,73.78,175,-180,180,180.0,112.5,-122.5,122.5,122.5,205,220,235,235.0,537.5
1,M,Jacob Cameron,SBD,MR-O,83,Raw,1999,OK,81.54,177.5,182.5,-187.5,182.5,125,-130,132.5,132.5,187.5,195,200,200.0,515
1,M,Matt Ferrell,SBD,MR-O,93,Raw,1996,OK,92.98,217.5,232.5,245,245.0,132.5,-137.5,137.5,137.5,237.5,250,255,255.0,637.5
2,M,Matthew McClendon,SBD,MR-O,93,Raw,1992,KS,91.12,200,217.5,230,230.0,140,147.5,-152.5,147.5,232.5,247.5,-252.5,247.5,625
3,M,Blake Saunders,SBD,MR-O,93,Raw,1992,OK,92.92,215,-230,-230,215.0,140,-145,-145,140.0,255,-267.5,,255.0,610
4,M,Joshua Geist,SBD,MR-O,93,Raw,1989,OK,90.34,165,182.5,187.5,187.5,125,145,150,150.0,200,220,-227.5,220.0,557.5
1,M,Thomas Saul,SBD,MR-O,105,Raw,1993,OK,101.54,207.5,220,-230,220.0,132.5,142.5,150,150.0,250,267.5,-275,267.5,637.5
2,M,Jacob Douglas,SBD,MR-O,105,Raw,1989,OK,101.12,192.5,202.5,215,215.0,135,145,155,155.0,225,242.5,250,250.0,620
3,M,Eric Adams #2,SBD,MR-O,105,Raw,1989,OK,102.54,185,195,-207.5,195.0,135,142.5,-150,142.5,230,-242.5,-242.5,230.0,567.5
4,M,Nicholas Gasaway,SBD,MR-O,105,Raw,1981,KS,100.60,130,145,155,155.0,105,115,-125,115.0,205,230,-235,230.0,500
1,M,Felix Moreno,SBD,MR-O,120,Raw,1991,TX,119.98,220,232.5,247.5,247.5,175,187.5,195,195.0,230,252.5,-275,252.5,695
1,M,Jesus Palacios,SBD,MR-T3,66,Raw,1998,KS,64.76,130,140,142.5,142.5,75,82.5,87.5,87.5,142.5,167.5,170,170.0,400
1,M,Trystan Self,SBD,MR-T3,74,Raw,1997,OK,73.78,175,-180,180,180.0,112.5,-122.5,122.5,122.5,205,220,235,235.0,537.5
1,M,Jacob Cameron,SBD,MR-T3,83,Raw,1999,OK,81.54,177.5,182.5,-187.5,182.5,125,-130,132.5,132.5,187.5,195,200,200.0,515
2,M,Lane Fisher,SBD,MR-T3,83,Raw,1997,KS,80.06,167.5,175,-185,175.0,120,127.5,-132.5,127.5,182.5,192.5,-210,192.5,495
1,M,Cody Pruitt,SBD,MR-T3,105,Raw,1997,OK,100.90,-202.5,205,220,220.0,-142.5,155,165,165.0,227.5,247.5,-252.5,247.5,632.5
2,M,Dayton Mooney,SBD,MR-T3,105,Raw,1997,KS,100.16,215,237.5,250,250.0,120,135,145,145.0,205,217.5,,217.5,612.5
1,F,Jennifer Schmult,SBD,FR-Jr,63,Raw,1996,OK,61.58,92.5,102.5,110,110.0,57.5,62.5,67.5,67.5,107.5,112.5,117.5,117.5,295
1,F,Emily Walker,SBD,FR-Jr,84,Raw,1996,OK,79.44,-102.5,107.5,-115,107.5,70,75,-82.5,75.0,115,125,132.5,132.5,315
1,F,Lisa Solis,SBD,FR-M1a,84+,Raw,1975,TX,91.66,100,105,-115,105.0,45,50,-57.5,50.0,102.5,122.5,145,145.0,300
1,F,Courtney Lawrenz,SBD,FR-O,63,Raw,1983,KS,62.46,110,115,-120,115.0,65,70,-75,70.0,152.5,157.5,165,165.0,350
2,F,Shelby Horton,SBD,FR-O,63,Raw,1991,OK,61.00,95,100,-112.5,100.0,47.5,52.5,-60,52.5,97.5,107.5,125,125.0,277.5
1,F,Emily Walker,SBD,FR-O,84,Raw,1996,OK,79.44,-102.5,107.5,-115,107.5,70,75,-82.5,75.0,115,125,132.5,132.5,315
1,F,Lisa Solis,SBD,FR-O,84+,Raw,1975,TX,91.66,100,105,-115,105.0,45,50,-57.5,50.0,102.5,122.5,145,145.0,300
