Name,Place,Division,Sex,Equipment,Country,State,WeightClassKg,BodyweightKg,Age,Best3SquatKg,Best3BenchKg,Bench4Kg,Best3DeadliftKg,Deadlift4Kg,TotalKg,Event
Ellen Stein,1,LW,F,Wraps,,NY,60,59.56,60,157.5,85,,180,,422.5,SBD
Danielle Columby,2,LW,F,Wraps,,AZ,60,50.44,29,130,70,,152.5,,352.5,SBD
Nicki Crapotta,3,LW,F,Wraps,,CA,60,59.78,27,140,75,,172.5,,387.5,SBD
Ashley Paiz,4,LW,F,Wraps,,NM,60,55.88,24,135,65,,130,,330,SBD
Tara Webber,1,HW,F,Wraps,Canada,,60+,81.19,24,197.5,120,,195,,512.5,SBD
Nancy Sarieh,2,HW,F,Wraps,,CA,60+,74.39,30,152.5,72.5,,200,,425,SBD
Bernice Fuss,3,HW,F,Wraps,Canada,,60+,70.13,57,127.5,100,108,150,161,377.5,SBD
Angela Adams,DQ,HW,F,Wraps,,TN,60+,95.98,38,-145,102.5,,180,,,SBD
James McCabe,1,Open,M,Wraps,,CA,60,59.78,23,227.5,122.5,,230,,580,SBD
Carlos Zarate,1,Open,M,Wraps,,CA,67.5,66.59,22,167.5,115,,182.5,,465,SBD
Bill Lotter,1,Open,M,Wraps,,MA,75,74.48,25,232.5,127.5,,265,,625,SBD
Vahana Dorcis,2,Open,M,Wraps,,AZ,75,74.89,30,195,127.5,,227.5,,550,SBD
David Isenberg,1,Open,M,Wraps,,TX,82.5,80.29,22,245,182.5,,277.5,,705,SBD
Richard Aluko,2,Open,M,Wraps,,IL,82.5,79.56,39,272.5,150,,275,,697.5,SBD
Wesley Keith,3,Open,M,Wraps,,IA,82.5,81.65,33,227.5,160,,282.5,,670,SBD
Aaron Palko,DQ,Open,M,Wraps,,OH,82.5,80.78,24,-227.5,-152.5,,272.5,,,SBD
Jesse Bumpus,1,Open,M,Wraps,,KY,90,89.18,26,285,160,,317.5,,762.5,SBD
Channing Doyle,2,Open,M,Wraps,,CA,90,89.49,26,290,177.5,,290,,757.5,SBD
David Hansen,3,Open,M,Wraps,,ND,90,89.54,38,242.5,167.5,,337.5,,747.5,SBD
John Rowland,4,Open,M,Wraps,,GA,90,89.9,42,265,182.5,,300,,747.5,SBD
Matt Moore,1,Open,M,Wraps,,WA,100,99.61,29,295,182.5,,342.5,,820,SBD
Matt Wiedemer,2,Open,M,Wraps,,OH,100,98.97,35,260,177.5,,277.5,,715,SBD
Luis Vasquez,DQ,Open,M,Wraps,,TX,100,99.97,34,295,-192.5,,,,,SBD
Matt Disbrow,1,Open,M,Wraps,,OH,110,108.14,28,320,227.5,,310,,857.5,SBD
Robert De La Rosa,2,Open,M,Wraps,,NC,110,106.78,24,320,207.5,,302.5,,830,SBD
Tee Popoola,1,Open,M,Wraps,,CA,125,122.56,30,365,245,,320,,930,SBD
David Douglas,2,Open,M,Wraps,,CA,125,124.06,26,320,252.5,,335,,907.5,SBD
Matt Quinn,3,Open,M,Wraps,,KY,125,111.9,32,302.5,205,,310,,817.5,SBD
Jason Payne,DQ,Open,M,Wraps,,WA,125,124.56,36,305,-205,,,,,SBD
Eric Fenton,DQ,Open,M,Wraps,,MA,125,124.78,38,-317.5,,,,,,SBD
David Zyski,1,Open,M,Wraps,,CA,140,130.27,28,342.5,220,,320,,882.5,SBD
Benjamin Bindseil,2,Open,M,Wraps,,TX,140,135.99,24,292.5,200,,305,,797.5,SBD
Ben Moore,1,Open,M,Wraps,,MO,140+,158.67,36,367.5,207.5,,347.5,,922.5,SBD
Jeff Frank,2,Open,M,Wraps,,KS,140+,168.51,25,365,227.5,,320,,912.5,SBD
Mike Kromer,3,Open,M,Wraps,,WA,140+,158.94,40,347.5,227.5,,295,,870,SBD
Susan Salazar,1,LW,F,Raw,,CA,60,59.56,38,155,90,,185,,430,SBD
Tina Daneshmand,2,LW,F,Raw,,CA,60,47.76,27,105,62.5,,157.5,,325,SBD
Joan Jennings,3,LW,F,Raw,,WA,60,57.33,32,122.5,77.5,,150,,350,SBD
Desiree Morgan,4,LW,F,Raw,,CA,60,55.84,25,125,62.5,,155,,342.5,SBD
Suzanne Davis,5,LW,F,Raw,,AZ,60,53.75,42,100,62.5,,162.5,,325,SBD
Tiffany Leung,6,LW,F,Raw,,CA,60,42,22,92.5,40,,127.5,,260,SBD
Emily Hu #1,DQ,LW,F,Raw,,CA,60,51.62,31,95,-87.5,,,,,SBD
Molly O'Rourke,1,HW,F,Raw,,CA,60+,102.1,30,192.5,127.5,,220,,540,SBD
Tara Maier,2,HW,F,Raw,,AZ,60+,74.16,19,143.5,92.5,,165,,401,SBD
Jenna Doyle,3,HW,F,Raw,,CA,60+,74.8,23,137.5,75,,187.5,,400,SBD
Malinda Barnes,4,HW,F,Raw,,AZ,60+,74.8,35,135,82.5,,162.5,,380,SBD
Nicole Pettel,5,HW,F,Raw,,CA,60+,66.59,21,132.5,75,,135,,342.5,SBD
Nicole Herbig,6,HW,F,Raw,,CA,60+,67.22,24,115,57.5,,137.5,,310,SBD
Sheri Stiles,DQ,HW,F,Raw,,MN,60+,70.08,25,-135,72.5,,172.5,,,SBD
Scott Layman,1,Open,M,Raw,,CA,67.5,66.32,43,215,137.5,,222.5,,575,SBD
Dan Carpenter,2,Open,M,Raw,,FL,67.5,65.54,35,185,117.5,,235,,537.5,SBD
Gary Slater,1,Open,M,Raw,,CA,75,74.21,42,230,178,,242.5,,650.5,SBD
Andrew Corlett,1,Open,M,Raw,,CA,90,89.54,32,250,160,,272.5,,682.5,SBD
Greg Khoudikian,DQ,Open,M,Raw,,CA,90,89.58,21,-257.5,167.5,,275,,,SBD
Mason Cervantes,1,Open,M,Raw,,CA,100,99.97,28,295,205,,327.5,,827.5,SBD
Luigi Fagiani,2,Open,M,Raw,,NY,100,98.57,23,270,187.5,,332.5,,790,SBD
Dan Green,1,Open,M,Raw,,CA,110,109,31,340,232.5,,372.5,,945,SBD
John Bieg,2,Open,M,Raw,,AZ,110,109.5,34,302.5,227.5,,335,,865,SBD
Adam Werner,3,Open,M,Raw,,OH,110,108.45,35,292.5,205,,300,,797.5,SBD
Brandon Allen #1,1,Open,M,Raw,,NV,140,130.5,25,310,232.5,,320,,862.5,SBD
Brandon Lilly,DQ,Open,M,Raw,,KY,140,138.48,31,317.5,-235,,,,,SBD
Judy Camsuzou,1,Open,F,Raw,,CA,67.5,66.81,46,,100,,,,100,B
Gary Slater,1,Open,M,Raw,,CA,75,74.21,42,,178,,,,178,B
Steve Morgan #1,DQ,Open,M,Raw,,CA,90,89.36,41,,-187.5,,,,,B
Garrett Griffin,1,Open,M,Raw,,LA,100,95.21,33,,217.5,,,,217.5,B
Jimmy Doyle,2,Open,M,Raw,,CA,100,99.74,25,,190,,,,190,B
Ryan DeWitt,1,Open,M,Raw,,CA,125,122.2,38,,227.5,,,,227.5,B
David Douglas,1,Open,M,Raw,,CA,140,129.77,26,,247.5,,,,247.5,B
LeRoy Walker,1,Open,M,Raw,,CA,140+,159.66,36,,277.5,283,,,277.5,B
Tina Daneshmand,1,Open,F,Raw,,CA,48,47.76,27,,,,157.5,162.5,157.5,D
Jill Mills,1,Open,F,Raw,,TX,82.5,78.29,41,,,,227.5,,227.5,D
Antonio Machuca,1,Open,M,Raw,,CA,90,89.99,33,,,,317.5,,317.5,D
Greg Khoudikian,2,Open,M,Raw,,CA,90,89.58,21,,,,275,,275,D
Luigi Fagiani,1,Open,M,Raw,,NY,100,98.57,23,,,,332.5,,332.5,D
Brandon Gerdes,2,Open,M,Raw,,CA,100,99.34,25,,,,320,,320,D
Michael Carter,1,Open,M,Raw,,CA,140+,173.77,32,,,,325,,325,D
