Division,WeightClassKg,Place,Name,Team,BodyweightKg,Best3SquatKg,Best3BenchKg,Best3DeadliftKg,TotalKg,Equipment,Event,Sex
Boys,51.71,1,Al Gardner,Sealy,51.48,156.49,72.57,156.49,385.55,Single-ply,SBD,M
Boys,51.71,2,Joe Castillo #3,Altair Rice,51.26,131.54,58.97,136.08,326.59,Single-ply,SBD,M
Boys,51.71,3,Richie Garza,West Columbia,49.49,124.74,63.5,131.54,319.78,Single-ply,SBD,M
Boys,51.71,4,Kaden Henry,El Maton Tidehaven,46.36,77.11,43.09,90.72,210.92,Single-ply,SBD,M
Boys,55.79,1,Ivan Rosales,Columbus,53.57,161.03,95.25,183.7,439.98,Single-ply,SBD,M
Boys,55.79,2,Dedrick Querner,Altair Rice,54.43,122.47,65.77,142.88,331.12,Single-ply,SBD,M
Boys,55.79,3,Dalton Opperman,Columbus,55.11,120.2,81.65,127.01,328.85,Single-ply,SBD,M
Boys,55.79,4,Marc Walters,El Maton Tidehaven,55.29,106.59,47.63,158.76,312.98,Single-ply,SBD,M
Boys,55.79,5,Hunter Kohleffel,Columbus,55.11,120.2,63.5,127.01,310.71,Single-ply,SBD,M
Boys,59.87,1,Zach Baker #2,Hallettsville,58.56,172.37,77.11,165.56,415.04,Single-ply,SBD,M
Boys,59.87,2,Isaac Garza,Ganado,59.19,142.88,88.45,163.29,394.63,Single-ply,SBD,M
Boys,59.87,3,Cameron Bates,Ganado,58.65,131.54,70.31,158.76,360.61,Single-ply,SBD,M
Boys,59.87,4,Eric Gutierrez,Altair Rice,59.42,136.08,79.38,142.88,358.34,Single-ply,SBD,M
Boys,59.87,5,Sutton Lindsley,Bastrop,59.6,122.47,99.79,129.27,351.53,Single-ply,SBD,M
Boys,59.87,6,Jonathon Segura,Altair Rice,59.42,120.2,70.31,156.49,347,Single-ply,SBD,M
Boys,59.87,DQ,Haiderman Carias,Altair Rice,59.42,99.79,56.7,,,Single-ply,SBD,M
Boys,67.13,1,Chance Marler,Victoria St. Joseph,66.95,217.72,95.25,222.26,535.24,Single-ply,SBD,M
Boys,67.13,2,Andrew Powell,Hallettsville,65.36,170.1,117.93,165.56,453.59,Single-ply,SBD,M
Boys,67.13,3,George Sanchez,Luling,66.27,167.83,95.25,181.44,444.52,Single-ply,SBD,M
Boys,67.13,4,Lane Stewart,Victoria St. Joseph,66.22,170.1,90.72,158.76,419.57,Single-ply,SBD,M
Boys,67.13,5,Ethan Guerra,Ganado,65.68,149.69,86.18,176.9,412.77,Single-ply,SBD,M
Boys,67.13,6,Logan Pierce,El Maton Tidehaven,67.04,151.95,86.18,170.1,408.23,Single-ply,SBD,M
Boys,67.13,7,Mason Glueck,Altair Rice,65.77,142.88,68.04,163.29,374.21,Single-ply,SBD,M
Boys,67.13,8,Chad Adams,Giddings,60.65,140.61,74.84,136.08,351.53,Single-ply,SBD,M
Boys,67.13,9,Carlos Rubio,El Maton Tidehaven,65.5,127.01,79.38,136.08,342.46,Single-ply,SBD,M
Boys,67.13,10,Alex Bonorden,Victoria St. Joseph,61.1,127.01,61.23,142.88,331.12,Single-ply,SBD,M
Boys,67.13,11,Reece Knebel,El Maton Tidehaven,64.46,113.4,63.5,142.88,319.78,Single-ply,SBD,M
Boys,67.13,12,Jonathon Martinez,Luling,64.46,108.86,68.04,127.01,303.91,Single-ply,SBD,M
Boys,67.13,DQ,Rj Zarate,Altair Rice,66.68,,,,,Single-ply,SBD,M
Boys,74.84,1,Alex Ortiz #3,Gonzales,71.17,238.14,129.27,190.51,557.92,Single-ply,SBD,M
Boys,74.84,2,Adrian Castaneda,Bellville,73.66,226.8,113.4,199.58,539.77,Single-ply,SBD,M
Boys,74.84,3,Joseph Stewart,Brookshire Royal,74.8,213.19,129.27,192.78,535.24,Single-ply,SBD,M
Boys,74.84,4,Kyle Carillo,El Maton Tidehaven,71.89,192.78,97.52,226.8,517.1,Single-ply,SBD,M
Boys,74.84,5,Jacob Galvez,El Maton Tidehaven,72.94,206.38,129.27,174.63,510.29,Single-ply,SBD,M
Boys,74.84,6,Nic Reyes,Altair Rice,70.76,179.17,95.25,208.65,483.08,Single-ply,SBD,M
Boys,74.84,7,Wayne Rinn,Bellville,73.75,183.7,104.33,183.7,471.74,Single-ply,SBD,M
Boys,74.84,8,Jesus Alfaro,Bastrop,74.12,158.76,97.52,192.78,449.06,Single-ply,SBD,M
Boys,74.84,9,Ben Villereal,Cuero,67.72,158.76,108.86,176.9,444.52,Single-ply,SBD,M
Boys,74.84,10,Devin Sims,Altair Rice,70.31,170.1,95.25,174.63,439.98,Single-ply,SBD,M
Boys,74.84,11,Bo Hart,Sealy,74.16,158.76,104.33,176.9,439.98,Single-ply,SBD,M
Boys,74.84,12,Justin Ficklen,Cuero,71.85,151.95,95.25,167.83,415.04,Single-ply,SBD,M
Boys,74.84,13,Jesse Everett,Luling,68.08,154.22,74.84,181.44,410.5,Single-ply,SBD,M
Boys,74.84,14,Jared Smith,Bastrop,68.72,122.47,88.45,156.49,367.41,Single-ply,SBD,M
Boys,74.84,15,Weston Warshack,Columbus,67.18,133.81,83.91,145.15,362.87,Single-ply,SBD,M
Boys,74.84,16,Andrew Crober,Luling,72.21,127.01,72.57,154.22,353.8,Single-ply,SBD,M
Boys,74.84,17,Juan Barboza,Altair Rice,70.31,136.08,65.77,149.69,351.53,Single-ply,SBD,M
Boys,74.84,DQ,Matt Vallejo,Victoria St. Joseph,74.71,,,,,Single-ply,SBD,M
Boys,74.84,DQ,Sergio Torres #1,Gonzales,74.66,,,,,Single-ply,SBD,M
Boys,74.84,DQ,Will Priest,Brookshire Royal,70.62,122.47,,,,Single-ply,SBD,M
Boys,82.1,1,Isaiah Herring,Hallettsville,76.7,238.14,138.35,244.94,621.42,Single-ply,SBD,M
Boys,82.1,2,Jack Russel,West Columbia,78.93,197.31,122.47,208.65,528.44,Single-ply,SBD,M
Boys,82.1,3,Drake Bustamante,Bellville,81.69,190.51,111.13,183.7,485.34,Single-ply,SBD,M
Boys,82.1,4,John Jackson #1,Hempstead,80.24,174.63,108.86,188.24,471.74,Single-ply,SBD,M
Boys,82.1,5,Camryn Higgns,Bastrop,75.66,181.44,104.33,183.7,469.47,Single-ply,SBD,M
Boys,82.1,6,Liam Porr,Victoria St. Joseph,80.29,176.9,106.59,183.7,467.2,Single-ply,SBD,M
Boys,82.1,7,Alex Toriz,Altair Rice,78.02,149.69,102.06,145.15,396.89,Single-ply,SBD,M
Boys,82.1,8,Jude Dennis,Bastrop,80.42,149.69,92.99,154.22,396.89,Single-ply,SBD,M
Boys,82.1,9,Cody Smith,Giddings,80.2,163.29,77.11,149.69,390.09,Single-ply,SBD,M
Boys,82.1,DQ,Jatorian Travis,El Maton Tidehaven,80.24,199.58,,,,Single-ply,SBD,M
Boys,89.81,1,Jeff Williams,El Maton Tidehaven,89.72,208.65,185.97,244.94,639.57,Single-ply,SBD,M
Boys,89.81,2,Ben Carmean,Bellville,87.09,265.35,151.95,206.38,623.69,Single-ply,SBD,M
Boys,89.81,3,Braden Fitzgerald,El Maton Tidehaven,85.18,163.29,113.4,195.04,471.74,Single-ply,SBD,M
Boys,89.81,4,Brian Garza,Gonzales,88.27,183.7,88.45,181.44,453.59,Single-ply,SBD,M
Boys,89.81,5,Aaron Mata,Ganado,88.09,172.37,81.65,179.17,433.18,Single-ply,SBD,M
Boys,89.81,6,Sammy Segura,Giddings,84.73,174.63,102.06,154.22,430.91,Single-ply,SBD,M
Boys,89.81,DQ,Dalton Tobola,Bastrop,83.32,,,,,Single-ply,SBD,M
Boys,89.81,DQ,John Rodriguez,Cuero,89.31,199.58,102.06,,,Single-ply,SBD,M
Boys,89.81,DQ,Caleb Edmonds,Hallettsville,85.55,,,,,Single-ply,SBD,M
Boys,89.81,DQ,Isaiah Estrada,Victoria St. Joseph,88.99,147.42,,,,Single-ply,SBD,M
Boys,99.79,1,Dayton Ball,Cuero,92.9,238.14,131.54,231.33,601.01,Single-ply,SBD,M
Boys,99.79,2,Jose Zaragoza,West Columbia,95.62,222.26,127.01,233.6,582.87,Single-ply,SBD,M
Boys,99.79,3,Andrew Tavera,Altair Rice,99.34,231.33,136.08,215.46,582.87,Single-ply,SBD,M
Boys,99.79,4,Malcolm Chaisson,Ganado,96.75,215.46,106.59,226.8,548.85,Single-ply,SBD,M
Boys,99.79,5,Jimmy Bustos,Gonzales,99.65,226.8,127.01,170.1,523.9,Single-ply,SBD,M
Boys,99.79,6,Will Denton,Cuero,96.48,197.31,115.67,197.31,510.29,Single-ply,SBD,M
Boys,99.79,7,Casey Marek,Bellville,93.08,204.12,115.67,185.97,505.76,Single-ply,SBD,M
Boys,99.79,8,Aaron Bradasich,Victoria St. Joseph,99.74,188.24,122.47,195.04,505.76,Single-ply,SBD,M
Boys,99.79,9,Malachi Gonzales,Giddings,94.39,181.44,113.4,181.44,476.27,Single-ply,SBD,M
Boys,99.79,10,Vicente Reyna,Gonzales,95.98,165.56,106.59,188.24,460.4,Single-ply,SBD,M
Boys,99.79,11,Brendon Rodriguez,Gonzales,97.07,142.88,97.52,156.49,396.89,Single-ply,SBD,M
Boys,99.79,12,Cameron Mileham,Gonzales,97.43,145.15,90.72,108.86,344.73,Single-ply,SBD,M
Boys,99.79,DQ,Zach Banda,Cuero,98.88,149.69,,,,Single-ply,SBD,M
Boys,109.77,1,Michael Brietzke,Luling,102.69,222.26,131.54,233.6,587.4,Single-ply,SBD,M
Boys,109.77,2,Tyrone Wilson,Bastrop,108.45,208.65,145.15,233.6,587.4,Single-ply,SBD,M
Boys,109.77,3,Richard Rogers,Giddings,109.13,235.87,129.27,217.72,582.87,Single-ply,SBD,M
Boys,109.77,4,Ronnie Ellis,Altair Rice,106.59,233.6,115.67,226.8,576.06,Single-ply,SBD,M
Boys,109.77,5,Nick Searcy,Cuero,104.6,204.12,117.93,210.92,532.97,Single-ply,SBD,M
Boys,109.77,6,Kyle Nelson,Bellville,102.56,219.99,104.33,204.12,528.44,Single-ply,SBD,M
Boys,109.77,7,Wade Smith,Giddings,103.37,197.31,120.2,188.24,505.76,Single-ply,SBD,M
Boys,109.77,8,Trent Wilkerson,Gonzales,107.86,204.12,102.06,190.51,496.68,Single-ply,SBD,M
Boys,109.77,9,Cameron Anderson,Bellville,105.96,210.92,120.2,156.49,487.61,Single-ply,SBD,M
Boys,109.77,10,Miguel Hernandez,Ganado,106.78,183.7,95.25,158.76,437.72,Single-ply,SBD,M
Boys,109.77,11,Jordian Martin,Brookshire Royal,101.11,154.22,90.72,174.63,419.57,Single-ply,SBD,M
Boys,109.77,12,Alex Campuzano,Ganado,101.42,151.95,72.57,163.29,387.82,Single-ply,SBD,M
Boys,109.77,DQ,Azreael Valle,Luling,101.74,170.1,,,,Single-ply,SBD,M
Boys,124.74,1,Justin Hoffman,Bastrop,124.06,283.5,183.7,235.87,703.07,Single-ply,SBD,M
Boys,124.74,2,Hunter Breaux,Bellville,123.6,219.99,151.95,185.97,557.92,Single-ply,SBD,M
Boys,124.74,3,De'Mondre Wade,Brookshire Royal,124.69,201.85,120.2,190.51,512.56,Single-ply,SBD,M
Boys,124.74,4,Dylan Ramirez,Altair Rice,123.83,188.24,104.33,163.29,455.86,Single-ply,SBD,M
Boys,124.74,5,Mauricio Brito,Ganado,118.66,149.69,90.72,147.42,387.82,Single-ply,SBD,M
Boys,124.74,6,PJ Moreida,Altair Rice,117.93,165.56,86.18,133.81,385.55,Single-ply,SBD,M
Boys,124.74+,1,Diego Hernandez,Cuero,131.22,276.69,142.88,233.6,653.17,Single-ply,SBD,M
Boys,124.74+,2,Juan Licea,Gonzales,132.45,272.16,142.88,238.14,653.17,Single-ply,SBD,M
Boys,124.74+,3,Fransisco Infante,Brookshire Royal,148.55,272.16,142.88,219.99,635.03,Single-ply,SBD,M
Boys,124.74+,4,Ryan Birchum,El Maton Tidehaven,156.17,215.46,136.08,204.12,555.65,Single-ply,SBD,M
Boys,124.74+,5,Trevor Gloor,Victoria St. Joseph,129.05,226.8,117.93,183.7,528.44,Single-ply,SBD,M
Boys,124.74+,DQ,Jacob Leos,Luling,125.51,181.44,,,,Single-ply,SBD,M
Boys,,NS,Reymundo Alcarum,Snook,,,,,,Single-ply,SBD,M
Boys,,NS,Jorge Melgoza,Cuero,,,,,,Single-ply,SBD,M
Boys,,NS,Nathan Corpus,Cuero,,,,,,Single-ply,SBD,M
Boys,,NS,Bobby Brune,El Maton Tidehaven,,,,,,Single-ply,SBD,M
Boys,,NS,Juan Ramirez,Giddings,,,,,,Single-ply,SBD,M
Boys,,NS,Luis Tello,Giddings,,,,,,Single-ply,SBD,M
Boys,,NS,Chris Sifuentes,Giddings,,,,,,Single-ply,SBD,M
Boys,,NS,JaQuan Thomas,Giddings,,,,,,Single-ply,SBD,M
Boys,,NS,Braden Tillery,Cuero,,,,,,Single-ply,SBD,M
Boys,,NS,Russell Morrison,El Maton Tidehaven,,,,,,Single-ply,SBD,M
Boys,,NS,Ben Ramsey,Ganado,,,,,,Single-ply,SBD,M
Boys,,NS,Frank Cobio,Brookshire Royal,,,,,,Single-ply,SBD,M
Boys,,NS,Logan Gaskey,Bastrop,,,,,,Single-ply,SBD,M
Boys,,NS,Greg Rivas,Bastrop,,,,,,Single-ply,SBD,M
Boys,,NS,Edgar Nava,Hempstead,,,,,,Single-ply,SBD,M
Boys,,NS,Omar Castanon,Hempstead,,,,,,Single-ply,SBD,M
Boys,,NS,Julian Alvarez,Hempstead,,,,,,Single-ply,SBD,M
Boys,,NS,Jamie Lopez,Hempstead,,,,,,Single-ply,SBD,M
Boys,,NS,Khamron Thomas,Hempstead,,,,,,Single-ply,SBD,M
Boys,,NS,Kolton Brod,Columbus,,,,,,Single-ply,SBD,M
Boys,,NS,Trace McAfee,Hallettsville,,,,,,Single-ply,SBD,M
Boys,,NS,Brennan Schimcek,Hallettsville,,,,,,Single-ply,SBD,M
Boys,,NS,Reid Henke,Hallettsville,,,,,,Single-ply,SBD,M
Boys,,NS,Dylan Crye,Hallettsville,,,,,,Single-ply,SBD,M
Boys,,NS,Brig Nelson,Victoria St. Joseph,,,,,,Single-ply,SBD,M
Boys,,NS,Sergio Calvo,Victoria St. Joseph,,,,,,Single-ply,SBD,M
Boys,,NS,Marco Herrera,Columbus,,,,,,Single-ply,SBD,M
Boys,,NS,Marco Calixto,Bellville,,,,,,Single-ply,SBD,M
Boys,,NS,Aaron Sanchez,Bellville,,,,,,Single-ply,SBD,M
Boys,,NS,Caleb Terrell,Sealy,,,,,,Single-ply,SBD,M
Boys,,NS,Nick Ramirez,Gonzales,,,,,,Single-ply,SBD,M
Boys,,NS,Cody Burklund,Sealy,,,,,,Single-ply,SBD,M
Boys,,NS,Drake Grigar,Sealy,,,,,,Single-ply,SBD,M
Boys,,NS,Joel Gassiott,Sealy,,,,,,Single-ply,SBD,M
