WeightClassKg,Name,Division,State,Country,BodyweightKg,Best3SquatKg,Best3BenchKg,Best3DeadliftKg,Deadlift4Kg,TotalKg,Place,Event,Sex,Equipment,AgeRange
44,Pat Reeves,M2,WM,England,43.1,65,35,100,,200,1,SBD,F,Single-ply,49.5-58.5
48,Nicola Gifford,M1,SE,England,47.1,125,55,140,,320,1,SBD,F,Single-ply,39.5-48.5
48,Enid Dixon,M2,YNE,England,47.6,65,45,100,,210,2,SBD,F,Single-ply,49.5-58.5
56,Jenny Hunter,M1,EM,England,56,137.5,85,150,,372.5,1,SBD,F,Single-ply,39.5-48.5
56,Norma Green,M1,WM,England,55.5,107.5,60,132.5,,300,2,SBD,F,Single-ply,39.5-48.5
60,Rita Bass,M2,GL,England,59.6,152.5,80,177.5,,410,1,SBD,F,Single-ply,49.5-58.5
60,Toni Hollis,M1,SM,England,58.9,155,95,155,,405,2,SBD,F,Single-ply,39.5-48.5
67.5,Doreeen Dowsett,M1,NM,England,63.4,117.5,57.5,150,,325,1,SBD,F,Single-ply,39.5-48.5
67.5,Helen Richards,M2,,Scotland,64.8,100,50,125,,275,2,SBD,F,Single-ply,49.5-58.5
90,Karen Zetolofsky,M1,GL,England,86.3,140,72.5,160,,372.5,1,SBD,F,Single-ply,39.5-48.5
60,Roger Powell #1,M3,NM,England,59.7,160,95,215,,470,1,SBD,M,Single-ply,59.5-68.5
60,Rodney Owers,M3,,N.Ireland,59,140,67.5,170,,377.5,2,SBD,M,Single-ply,59.5-68.5
67.5,Doug Howden,M3,,Scotland,66.4,180,130,235,,545,1,SBD,M,Single-ply,59.5-68.5
67.5,Robert Alecock,M3,SW,England,67.5,210,105,220,,535,2,SBD,M,Single-ply,59.5-68.5
67.5,Robert Sullivan,M3,SM,England,60.4,130,85,185,,400,3,SBD,M,Single-ply,59.5-68.5
75,George Leggett,M3,EM,England,73.7,195,110,210,,515,1,SBD,M,Single-ply,59.5-68.5
75,Chris Gannon,M3,WM,England,67.9,160,87.5,200,,447.5,2,SBD,M,Single-ply,59.5-68.5
82.5,Brian Tuffnell,M3,WM,England,80.8,180,125,225,,530,1,SBD,M,Single-ply,59.5-68.5
82.5,Norman Anderson,M3,YNE,England,78.7,182.5,127.5,200,,510,2,SBD,M,Single-ply,59.5-68.5
82.5,Dennis Unitt,M3,WM,England,81.2,157.5,107.5,180,,445,3,SBD,M,Single-ply,59.5-68.5
82.5,Gren Elmore,M3,WM,England,81,145,115,175,,435,4,SBD,M,Single-ply,59.5-68.5
90,Dave Tucker,M3,EM,England,87.3,215,117.5,235,,567.5,1,SBD,M,Single-ply,59.5-68.5
90,Ken Parry,M3,NW,England,86.8,190,132.5,225,,547.5,2,SBD,M,Single-ply,59.5-68.5
100,Henry Catterall,M3,NW,England,98.2,200,100,230,,530,1,SBD,M,Single-ply,59.5-68.5
100,Ted Cooper #1,M3,SE,England,98,,,,,,DQ,SBD,M,Single-ply,59.5-68.5
56,Kevin Gorman,M2,NW,England,55.4,130,105,157.5,,392.5,1,SBD,M,Single-ply,49.5-58.5
60,Hugh McGhee,M2,,Scotland,59.2,172.5,105,190,,467.5,1,SBD,M,Single-ply,49.5-58.5
67.5,Ray Fraser,M2,,Scotland,65.3,180,127.5,235,,542.5,1,SBD,M,Single-ply,49.5-58.5
67.5,John Hibbert,M2,SE,England,66.6,185,140,217.5,,542.5,2,SBD,M,Single-ply,49.5-58.5
67.5,Martyn Rhodes,M2,YNE,England,67.2,160,95,177.5,,432.5,3,SBD,M,Single-ply,49.5-58.5
67.5,Trevor Harvey,M2,,N.Ireland,66.8,145,70,185,,400,4,SBD,M,Single-ply,49.5-58.5
75,Herman Nurse,M2,GL,England,71.4,237.5,137.5,230,,605,1,SBD,M,Single-ply,49.5-58.5
75,John Russell,M2,SE,England,74.6,225,137.5,225,,587.5,2,SBD,M,Single-ply,49.5-58.5
75,Jim Higgins,M2,,Scotland,74.3,195,122.5,220,,537.5,3,SBD,M,Single-ply,49.5-58.5
75,Peter Nicholson,M2,SM,England,75,195,105,225,,525,4,SBD,M,Single-ply,49.5-58.5
75,C. Peters,M2,GL,England,74.8,170,117.5,227.5,,515,5,SBD,M,Single-ply,49.5-58.5
75,Amrik Singh,M2,YNE,England,71,182.5,115,200,,497.5,6,SBD,M,Single-ply,49.5-58.5
75,Dave Douglas,M2,YNE,England,73.7,180,100,170,,450,7,SBD,M,Single-ply,49.5-58.5
75,J. Hardie,M2,,Scotland,74.3,150,107.5,190,,447.5,6,SBD,M,Single-ply,49.5-58.5
82.5,Mick Hunnam,M2,YNE,England,81.8,240,155,240,,635,1,SBD,M,Single-ply,49.5-58.5
82.5,Tony White,M2,WM,England,80.8,215,140,235,,590,2,SBD,M,Single-ply,49.5-58.5
82.5,Alan Twigg,M2,YNE,England,80.4,200,125,220,,545,3,SBD,M,Single-ply,49.5-58.5
82.5,John Wills,M2,,Scotland,80.4,180,117.5,210,,507.5,4,SBD,M,Single-ply,49.5-58.5
82.5,Tony Santuz,M2,WM,England,77.3,200,95,210,,505,5,SBD,M,Single-ply,49.5-58.5
82.5,Roland Bonner,M2,SE,England,76.5,170,115,200,,485,6,SBD,M,Single-ply,49.5-58.5
90,Charles Crawford,M2,,Scotland,88.5,235,125,240,,600,1,SBD,M,Single-ply,49.5-58.5
90,Mick Ellender,M2,SE,England,86.2,190,127.5,250,,567.5,2,SBD,M,Single-ply,49.5-58.5
90,Dave Battison,M2,EM,England,87.3,195,135,225,,555,3,SBD,M,Single-ply,49.5-58.5
90,Alex Mathieson,M2,,Scotland,88.1,205,127.5,222.5,,555,4,SBD,M,Single-ply,49.5-58.5
100,Rod Fielding,M2,NW,England,97.7,240,140,280,290,660,1,SBD,M,Single-ply,49.5-58.5
100,C. Williams,M2,,Scotland,96.2,250,152.5,255,,657.5,2,SBD,M,Single-ply,49.5-58.5
100,Tony Baker,M2,WM,England,97.5,215,180,255,,650,3,SBD,M,Single-ply,49.5-58.5
100,Andy Davies #1,M2,NW,England,95.1,212.5,137.5,252.5,,602.5,4,SBD,M,Single-ply,49.5-58.5
110,Roger Scott,M2,SE,England,109,230,130,260,,620,1,SBD,M,Single-ply,49.5-58.5
110,Clive Shepherd,M2,WM,England,101.8,215,117.5,232.5,,565,2,SBD,M,Single-ply,49.5-58.5
125,John Halfacre,M2,SE,England,112.8,240,150,260,,650,1,SBD,M,Single-ply,49.5-58.5
125+,Tony Hills,M2,SE,England,127.5,250,140,242.5,,632.5,1,SBD,M,Single-ply,49.5-58.5
56,Mick Evans,M1,WM,England,55.2,127.5,87.5,160,,375,1,SBD,M,Single-ply,49.5-58.5
60,Steve Williams,M1,,Wales,59.8,137.5,92.5,155,,385,1,SBD,M,Single-ply,49.5-58.5
67.5,Ronnie Kerr,M1,,Scotland,67.5,225,135,245,,605,1,SBD,M,Single-ply,39.5-48.5
67.5,Miguel Flores #2,M1,YNE,England,67.5,230,117.5,217.5,,565,2,SBD,M,Single-ply,39.5-48.5
67.5,Zia Mirza,M1,WM,England,65.7,175,142.5,205,,522.5,3,SBD,M,Single-ply,39.5-48.5
67.5,M. Smith #60,M1,SM,England,67.4,175,102.5,195,,472.5,4,SBD,M,Single-ply,39.5-48.5
75,Steve Walker #1,M1,EM,England,74.2,240,180,270,,690,1,SBD,M,Single-ply,39.5-48.5
75,R. Williams,M1,GL,England,73.9,215,140,227.5,,582.5,2,SBD,M,Single-ply,39.5-48.5
75,Mick Cliffe,M1,NM,England,72.5,210,120,230,,560,4,SBD,M,Single-ply,39.5-48.5
75,Stan Macrow,M1,WM,England,73.4,200,140,227.5,,567.5,3,SBD,M,Single-ply,39.5-48.5
75,Jas Singh,M1,WM,England,72.3,200,120,210,,530,5,SBD,M,Single-ply,39.5-48.5
75,Paul Ayres,M1,EM,England,72.4,172.5,120,207.5,,500,6,SBD,M,Single-ply,39.5-48.5
82.5,William Lincoln,M1,,Scotland,82,260,175,250,,685,1,SBD,M,Single-ply,39.5-48.5
82.5,Bob Baxter,M1,EM,England,81.9,217.5,140,227.5,,585,2,SBD,M,Single-ply,39.5-48.5
82.5,Ivan Johnston,M1,,N.Ireland,80.9,195,125,235,,555,3,SBD,M,Single-ply,39.5-48.5
90,Kevin Jane,M1,EM,England,89.6,290,162.5,295,,747.5,1,SBD,M,Single-ply,39.5-48.5
90,Andrew Kuttner,M1,SM,England,89.6,245,157.5,255,,657.5,2,SBD,M,Single-ply,39.5-48.5
90,Willie McKie,M1,,Scotland,88.5,245,160,235,,640,3,SBD,M,Single-ply,39.5-48.5
90,Steve Clifford,M1,WM,England,84.1,240,132.5,255,,627.5,4,SBD,M,Single-ply,39.5-48.5
90,Martin Cartman,M1,YNE,England,85.6,230,145,250,,625,5,SBD,M,Single-ply,39.5-48.5
90,Chris Smith #33,M1,WM,England,86.3,245,150,230,,625,6,SBD,M,Single-ply,39.5-48.5
90,Brian Mackness,M1,SE,England,89.3,205,140,240,,585,7,SBD,M,Single-ply,39.5-48.5
90,Brian Baker,M1,,Scotland,89.4,187.5,130,240,,557.5,8,SBD,M,Single-ply,39.5-48.5
100,Paul Bambrook,M1,WM,England,90.4,260,160,285,,705,1,SBD,M,Single-ply,39.5-48.5
100,C. McNally,M1,NW,England,90.5,250,170,272.5,,692.5,2,SBD,M,Single-ply,39.5-48.5
100,Ted Moore,M1,NW,England,98.2,245,140,267.5,,652.5,3,SBD,M,Single-ply,39.5-48.5
100,A. Smith #29,M1,WM,England,97.9,255,145,240,,640,4,SBD,M,Single-ply,39.5-48.5
100,Gary Costello,M1,NW,England,99.3,220,145,230,,595,5,SBD,M,Single-ply,39.5-48.5
110,Tony Stevens #1,M1,GL,England,106.4,322.5,185,320,,827.5,1,SBD,M,Single-ply,39.5-48.5
110,Geoff Poole,M1,SW,England,109.3,320,165,285,,770,2,SBD,M,Single-ply,39.5-48.5
110,John Dobbs,M1,WM,England,108.5,225,187.5,250,,662.5,3,SBD,M,Single-ply,39.5-48.5
125,John Blackbum,M1,NW,England,124.3,295,150,295,,740,1,SBD,M,Single-ply,39.5-48.5
125+,David Tumer,M1,NM,England,134.9,322.5,175,250,,747.5,1,SBD,M,Single-ply,39.5-48.5
125+,Roy Simon,M1,GL,England,180.5,265,200,270,,735,2,SBD,M,Single-ply,39.5-48.5
125+,Peter Morgan,M1,,Wales,130.7,300,170,260,,730,3,SBD,M,Single-ply,39.5-48.5
125+,Lee Kelly #1,M1,,Wales,157.5,270,202.5,225,,697.5,4,SBD,M,Single-ply,39.5-48.5
