Division,WeightClassKg,Place,Name,Team,BodyweightKg,Best3SquatKg,Best3BenchKg,Best3DeadliftKg,TotalKg,Equipment,Event,Sex
Boys,55.79,1,Darius Rivera,Princeton,51.89,142.88,92.99,172.37,408.23,Single-ply,SBD,M
Boys,51.71,2,Jaime Luna,Palmer,51.17,147.42,61.23,131.54,340.19,Single-ply,SBD,M
Boys,51.71,3,Adrian Brackens,Forney,51.53,111.13,70.31,124.74,306.17,Single-ply,SBD,M
Boys,51.71,4,Steven Pham,Sunnyvale,51.71,113.4,56.7,136.08,306.17,Single-ply,SBD,M
Boys,51.71,5,Zach Kuntz,Rockwall,49.53,106.59,56.7,131.54,294.84,Single-ply,SBD,M
Boys,51.71,6,Javiar Garcia,Lancaster,51.17,92.99,61.23,115.67,269.89,Single-ply,SBD,M
Boys,55.79,7,Gio Gutierrez,North Mesquite,51.89,79.38,31.75,117.93,229.06,Single-ply,SBD,M
Boys,51.71,8,Mike Brown #13,Lancaster,47.81,83.91,43.09,86.18,213.19,Single-ply,SBD,M
Boys,51.71,DQ,Mauricio Cadena,Commerce,50.26,,,,,Single-ply,SBD,M
Boys,51.71,DQ,Nathan Duckworth,Sunnyvale,51.71,,,,,Single-ply,SBD,M
Boys,51.71,DQ,Colby Cowan,Forney,51.71,,,,,Single-ply,SBD,M
Boys,55.79,1,Rj Reynolds,Commerce,53.43,129.27,74.84,136.08,340.19,Single-ply,SBD,M
Boys,55.79,2,Trey Russell,Eustace,55.7,120.2,74.84,140.61,335.66,Single-ply,SBD,M
Boys,55.79,3,Thein Tran,Sunnyvale,55.79,122.47,61.23,127.01,310.71,Single-ply,SBD,M
Boys,59.87,DQ,Brandon Hall,Eustace,55.97,,,,,Single-ply,SBD,M
Boys,55.79,DQ,Sandavol Danny,Farmersville,52.25,,,,,Single-ply,SBD,M
Boys,59.87,1,Dillan Cromeens,Nevada Community,56.43,151.95,79.38,136.08,367.41,Single-ply,SBD,M
Boys,59.87,2,Crinstin Aleman,North Mesquite,56.25,115.67,81.65,115.67,312.98,Single-ply,SBD,M
Boys,59.87,3,Jorge Utega,Eustace,58.33,106.59,68.04,113.4,288.03,Single-ply,SBD,M
Boys,59.87,DQ,Dalton Krodle,Commerce,57.15,,,,,Single-ply,SBD,M
Boys,67.13,1,Felix Brito,Royse City,65.05,181.44,88.45,185.97,455.86,Single-ply,SBD,M
Boys,67.13,2,Houston Patterson,Justin Northwest,66.41,172.37,104.33,172.37,449.06,Single-ply,SBD,M
Boys,67.13,3,Abed Abuhatub,Eustace,65.59,154.22,97.52,190.51,442.25,Single-ply,SBD,M
Boys,67.13,4,Kevonte Collier,South Garland,60.87,161.03,117.93,154.22,433.18,Single-ply,SBD,M
Boys,67.13,5,Ian Concepcion,Krum,62.87,167.83,83.91,167.83,419.57,Single-ply,SBD,M
Boys,67.13,6,Trevor Bell,Sunnyvale,65.77,174.63,70.31,174.63,419.57,Single-ply,SBD,M
Boys,67.13,7,Preston Amason,Eustace,65.95,158.76,102.06,158.76,419.57,Single-ply,SBD,M
Boys,67.13,8,Matt Castillo,North Mesquite,63.68,142.88,86.18,176.9,405.97,Single-ply,SBD,M
Boys,67.13,9,Tyler Murphy,Commerce,61.78,161.03,68.04,147.42,376.48,Single-ply,SBD,M
Boys,67.13,10,Devin Shaw,Lone Oak,65.5,136.08,79.38,149.69,365.14,Single-ply,SBD,M
Boys,67.13,11,Denton Bridges,Terrell,62.41,127.01,83.91,127.01,337.93,Single-ply,SBD,M
Boys,67.13,DQ,Alex Ramsey,Royse City,65.86,,,,,Single-ply,SBD,M
Boys,67.13,DQ,Dustin Louth,Princeton,63.14,,,,,Single-ply,SBD,M
Boys,67.13,DQ,Kason Freelan,Lone Oak,66.41,142.88,,,,Single-ply,SBD,M
Boys,74.84,1,Bacardi Clark,Forney,73.12,204.12,108.86,231.33,544.31,Single-ply,SBD,M
Boys,74.84,2,Jeremy Ballard,Corsicana Mildred,74.57,204.12,106.59,199.58,510.29,Single-ply,SBD,M
Boys,74.84,3,Brian Funderburke,Dallas Life Oak Cliff,74.57,179.17,92.99,206.38,478.54,Single-ply,SBD,M
Boys,74.84,3,Brian Funderburke,Dallas Life Oak Cliff,74.57,179.17,92.99,206.38,478.54,Single-ply,SBD,M
Boys,74.84,4,Devin DeLeon,Sunnyvale,73.94,172.37,104.33,195.04,471.74,Single-ply,SBD,M
Boys,74.84,5,Mason Baker,Justin Northwest,73.48,183.7,90.72,192.78,467.2,Single-ply,SBD,M
Boys,74.84,6,Dra'Lyne Ricks,North Mesquite,74.84,181.44,99.79,179.17,460.4,Single-ply,SBD,M
Boys,74.84,7,Cody Maupin,Nevada Community,73.03,183.7,111.13,163.29,458.13,Single-ply,SBD,M
Boys,74.84,8,Dayron Holmes,South Garland,73.12,183.7,92.99,181.44,458.13,Single-ply,SBD,M
Boys,74.84,9,Brennen Fletcher,Nevada Community,74.03,165.56,108.86,183.7,458.13,Single-ply,SBD,M
Boys,74.84,10,Dylan Bonesteel,North Mesquite,72.76,174.63,99.79,181.44,455.86,Single-ply,SBD,M
Boys,74.84,11,Chris Saunders,Dallas Life Oak Cliff,74.84,151.95,120.2,161.03,433.18,Single-ply,SBD,M
Boys,74.84,11,Chris Saunders,Dallas Life Oak Cliff,74.84,151.95,120.2,161.03,433.18,Single-ply,SBD,M
Boys,74.84,12,Hector Zamarripa,Palmer,70.13,142.88,113.4,170.1,426.38,Single-ply,SBD,M
Boys,74.84,13,Matthew Jelen,Krum,71.94,158.76,99.79,154.22,412.77,Single-ply,SBD,M
Boys,74.84,DQ,Eric Valenzuela,Dallas Life Oak Cliff,68.4,,,,,Single-ply,SBD,M
Boys,74.84,DQ,Marcus Cantera,Commerce,74.48,,,,,Single-ply,SBD,M
Boys,74.84,DQ,Jason Burgett,Palmer,74.75,,,,,Single-ply,SBD,M
Boys,74.84,DQ,Christian Varella,North Mesquite,72.39,,,,,Single-ply,SBD,M
Boys,74.84,DQ,Cyle Ferrell,Nevada Community,72.39,136.08,,,,Single-ply,SBD,M
Boys,74.84,DQ,Trey Porter,South Garland,73.84,176.9,,,,Single-ply,SBD,M
Boys,74.84,DQ,Abdul Khalaf,Sunnyvale,74.16,183.7,120.2,,,Single-ply,SBD,M
Boys,74.84,DQ,Eric Valenzuela,Dallas Life Oak Cliff,68.4,,,,,Single-ply,SBD,M
Boys,74.84,DQ,Kevin Barron,Rockwall-Heath,74.84,,,,,Single-ply,SBD,M
Boys,82.1,1,Isaiah Martinez,Commerce,79.74,217.72,154.22,226.8,598.74,Single-ply,SBD,M
Boys,82.1,2,Michael Williams,Dallas Life Oak Cliff,80.1,197.31,129.27,272.16,598.74,Single-ply,SBD,M
Boys,82.1,2,Michael Williams,Dallas Life Oak Cliff,80.1,197.31,129.27,272.16,598.74,Single-ply,SBD,M
Boys,82.1,3,Tay Roper,Forney,77.38,213.19,83.91,235.87,532.97,Single-ply,SBD,M
Boys,89.81,4,Aaron Johnson #16,Lancaster,82.28,197.31,113.4,192.78,503.49,Single-ply,SBD,M
Boys,82.1,5,Lane Allen,Justin Northwest,82.01,170.1,149.69,170.1,489.88,Single-ply,SBD,M
Boys,82.1,6,Deunte Levine,Dallas Life Oak Cliff,78.29,183.7,108.86,190.51,483.08,Single-ply,SBD,M
Boys,82.1,6,Deunte Levine,Dallas Life Oak Cliff,78.29,183.7,108.86,190.51,483.08,Single-ply,SBD,M
Boys,82.1,7,Arquel Rainwater,South Garland,75.39,158.76,129.27,190.51,478.54,Single-ply,SBD,M
Boys,82.1,8,Ryan Moss,Sunnyvale,80.74,185.97,90.72,195.04,471.74,Single-ply,SBD,M
Boys,89.81,9,Bryant Leslie,Nevada Community,82.28,167.83,102.06,154.22,424.11,Single-ply,SBD,M
Boys,82.1,DQ,Courbin Burton,South Garland,79.11,176.9,,,,Single-ply,SBD,M
Boys,82.1,DQ,Dustin Richards,Krum,78.2,181.44,102.06,,,Single-ply,SBD,M
Boys,89.81,1,D'Vonta Walker,Rockwall-Heath,88.54,272.16,151.95,265.35,689.46,Single-ply,SBD,M
Boys,89.81,2,Cody Duffy,Justin Northwest,89.18,249.48,161.03,224.53,635.03,Single-ply,SBD,M
Boys,89.81,3,Denzel Lewis,Lancaster,88.27,215.46,122.47,222.26,560.19,Single-ply,SBD,M
Boys,89.81,4,Josh Klingel,Hawley,89.36,249.48,115.67,195.04,560.19,Single-ply,SBD,M
Boys,89.81,5,Thomas Tilford,Scurry-Rosser,83.37,217.72,131.54,204.12,553.38,Single-ply,SBD,M
Boys,99.79,6,Colton Henderson,Terrell,89.99,195.04,136.08,204.12,535.24,Single-ply,SBD,M
Boys,89.81,7,Tyler McClain,Lone Oak,88.81,185.97,136.08,208.65,530.7,Single-ply,SBD,M
Boys,89.81,8,Joe Randle,North Mesquite,88.72,195.04,102.06,226.8,523.9,Single-ply,SBD,M
Boys,89.81,9,Dunn Joel,Royse City,83.73,226.8,108.86,181.44,517.1,Single-ply,SBD,M
Boys,89.81,10,Peter Gatson,Lancaster,87.09,185.97,92.99,210.92,489.88,Single-ply,SBD,M
Boys,99.79,11,Elijah Banks,North Mesquite,89.99,172.37,122.47,172.37,467.2,Single-ply,SBD,M
Boys,89.81,12,John Day,Scurry-Rosser,84.01,185.97,95.25,176.9,458.13,Single-ply,SBD,M
Boys,89.81,13,Erick Torres,Palmer,83.82,179.17,106.59,158.76,444.52,Single-ply,SBD,M
Boys,89.81,14,Santiago Flores,Forney,83.46,165.56,102.06,167.83,435.45,Single-ply,SBD,M
Boys,89.81,15,Ryan Kim,Rockwall,83.91,158.76,102.06,170.1,430.91,Single-ply,SBD,M
Boys,89.81,16,Alex Wick,Farmersville,84.64,142.88,92.99,145.15,381.02,Single-ply,SBD,M
Boys,89.81,17,Dylon Wieland,Terrell,86.73,129.27,83.91,142.88,356.07,Single-ply,SBD,M
Boys,89.81,18,Jacob Eland,Nevada Community,86.18,117.93,72.57,154.22,344.73,Single-ply,SBD,M
Boys,89.81,DQ,Cj Bryant,Princeton,87.54,,,,,Single-ply,SBD,M
Boys,99.79,1,Leo Garcia,Justin Northwest,98.97,240.4,147.42,242.67,630.49,Single-ply,SBD,M
Boys,99.79,2,Carter James,Justin Northwest,97.16,235.87,120.2,244.94,601.01,Single-ply,SBD,M
Boys,99.79,3,Christian Stewart,Forney,97.34,222.26,142.88,233.6,598.74,Single-ply,SBD,M
Boys,99.79,4,Thomas Johnson,Royse City,93.35,242.67,142.88,192.78,578.33,Single-ply,SBD,M
Boys,99.79,5,Brandon Morris,Scurry-Rosser,96.52,226.8,124.74,213.19,564.72,Single-ply,SBD,M
Boys,99.79,6,Joshua Cartwright,North Garland,97.52,190.51,113.4,226.8,530.7,Single-ply,SBD,M
Boys,99.79,7,Quamyas White,Terrell,91.53,183.7,131.54,176.9,492.15,Single-ply,SBD,M
Boys,99.79,8,Jose Villareal,North Garland,97.34,188.24,106.59,181.44,476.27,Single-ply,SBD,M
Boys,109.77,9,Lionel Garcia,Eustace,99.88,190.51,102.06,174.63,467.2,Single-ply,SBD,M
Boys,99.79,10,Zach Hughes,Eustace,93.26,158.76,120.2,174.63,453.59,Single-ply,SBD,M
Boys,99.79,11,Miguel Medrano,North Garland,95.53,156.49,120.2,174.63,451.32,Single-ply,SBD,M
Boys,99.79,12,Godswill Nweke,Sunnyvale,99.34,147.42,86.18,208.65,442.25,Single-ply,SBD,M
Boys,99.79,13,Craig White,Lancaster,94.98,156.49,88.45,167.83,412.77,Single-ply,SBD,M
Boys,109.77,1,Clayton McGilvray,Justin Northwest,102.87,272.16,154.22,254.01,680.39,Single-ply,SBD,M
Boys,109.77,2,Donavan White,Princeton,109.23,249.48,124.74,249.48,623.69,Single-ply,SBD,M
Boys,109.77,3,Joe Gonzales,Justin Northwest,106.41,249.48,136.08,226.8,612.35,Single-ply,SBD,M
Boys,109.77,4,Jackson Bolin,Rockwall,106.41,213.19,165.56,226.8,605.55,Single-ply,SBD,M
Boys,109.77,5,Darius Jones #4,Lancaster,104.69,224.53,108.86,226.8,560.19,Single-ply,SBD,M
Boys,109.77,6,Jalen Scott,North Mesquite,102.06,226.8,120.2,208.65,555.65,Single-ply,SBD,M
Boys,109.77,7,Danny Hanna,Corsicana Mildred,105.51,206.38,138.35,204.12,548.85,Single-ply,SBD,M
Boys,109.77,8,Brandon Saens,Red Oak,105.69,215.46,129.27,199.58,544.31,Single-ply,SBD,M
Boys,109.77,9,Ryan Ramirrez,Rockwall,108.68,204.12,127.01,195.04,526.17,Single-ply,SBD,M
Boys,109.77,10,Jose Reyes,Royse City,103.69,208.65,131.54,165.56,505.76,Single-ply,SBD,M
Boys,109.77,11,Christian Cook,Rockwall,101.88,174.63,120.2,185.97,480.81,Single-ply,SBD,M
Boys,109.77,12,Ridge Smith,Eustace,109.59,195.04,108.86,170.1,474,Single-ply,SBD,M
Boys,109.77,13,James Weimer,Nevada Community,103.06,188.24,99.79,183.7,471.74,Single-ply,SBD,M
Boys,109.77,14,Michael Sheveland,Sunnyvale,104.33,165.56,95.25,174.63,435.45,Single-ply,SBD,M
Boys,109.77,15,Wally Baker,Eustace,103.06,158.76,99.79,140.61,399.16,Single-ply,SBD,M
Boys,109.77,16,Brian Taylor,Lancaster,100.52,138.35,74.84,145.15,358.34,Single-ply,SBD,M
Boys,109.77,17,Mohammed Al-Rousan,Sunnyvale,104.33,181.44,117.93,,299.37,Single-ply,SB,M
Boys,124.74,1,Travis Stubblefield,Justin Northwest,116.03,272.16,181.44,249.48,703.07,Single-ply,SBD,M
Boys,124.74,2,Jake Holliman,Rockwall-Heath,117.03,276.69,151.95,258.55,687.19,Single-ply,SBD,M
Boys,124.74,3,Ethan Dobbs,Rockwall-Heath,120.56,265.35,151.95,242.67,659.98,Single-ply,SBD,M
Boys,124.74,4,Donovan Parker,North Mesquite,113.49,240.4,154.22,249.48,644.1,Single-ply,SBD,M
Boys,124.74,5,Chris Ramos,Forney,118.57,238.14,142.88,238.14,619.15,Single-ply,SBD,M
Boys,124.74,6,Joel Lopez,Farmersville,121.93,260.82,138.35,213.19,612.35,Single-ply,SBD,M
Boys,124.74,7,Dan Bluitt,Dallas Life Oak Cliff,121.47,229.06,147.42,192.78,569.26,Single-ply,SBD,M
Boys,124.74,7,Dan Bluitt,Dallas Life Oak Cliff,121.47,229.06,147.42,192.78,569.26,Single-ply,SBD,M
Boys,124.74,8,Quinton Carroll,Dallas Life Oak Cliff,123.83,229.06,111.13,215.46,555.65,Single-ply,SBD,M
Boys,124.74,8,Quinton Carroll,Dallas Life Oak Cliff,123.83,229.06,111.13,215.46,555.65,Single-ply,SBD,M
Boys,124.74,9,Colton Busby,Lone Oak,111.31,226.8,122.47,204.12,553.38,Single-ply,SBD,M
Boys,124.74,10,Mustafa Rabah,Sunnyvale,118.39,226.8,127.01,199.58,553.38,Single-ply,SBD,M
Boys,124.74,11,Raul Torres,Palmer,122.83,213.19,124.74,210.92,548.85,Single-ply,SBD,M
Boys,124.74,12,Jack Willeford,Farmersville,120.56,215.46,142.88,183.7,542.04,Single-ply,SBD,M
Boys,124.74,13,Matt Price,Forney,124.74,204.12,102.06,213.19,519.36,Single-ply,SBD,M
Boys,124.74,14,Osvaldo Casteneda,Royse City,114.85,204.12,131.54,176.9,512.56,Single-ply,SBD,M
Boys,124.74,15,Brian Lorts,Rockwall,116.85,174.63,124.74,188.24,487.61,Single-ply,SBD,M
Boys,124.74,DQ,Cortez Crosby,Commerce,118.12,,,,,Single-ply,SBD,M
Boys,124.74,DQ,Markeist Scott,Lancaster,120.84,124.74,,,,Single-ply,SBD,M
Boys,124.74+,1,Sean Langley,South Garland,141.79,290.3,158.76,226.8,675.85,Single-ply,SBD,M
Boys,124.74+,2,Matt Hawkins,Nevada Community,139.71,276.69,147.42,247.21,671.32,Single-ply,SBD,M
Boys,124.74+,3,Tyler Heard,Scurry-Rosser,147.69,260.82,151.95,204.12,616.89,Single-ply,SBD,M
Boys,124.74+,4,Zelarious Taylor,South Garland,133.72,226.8,181.44,201.85,610.08,Single-ply,SBD,M
Boys,124.74+,5,Markell Garner,Lancaster,139.98,242.67,129.27,217.72,589.67,Single-ply,SBD,M
Boys,124.74+,6,Tj Talashek,Sunnyvale,125.24,249.48,113.4,219.99,582.87,Single-ply,SBD,M
Boys,124.74+,7,Amine Elhalili,Rockwall,128.46,195.04,122.47,226.8,544.31,Single-ply,SBD,M
Boys,124.74+,8,Thomas Hyde,Eustace,131.72,210.92,102.06,204.12,517.1,Single-ply,SBD,M
Boys,124.74+,9,Rj Carranza,Nevada Community,143.79,208.65,104.33,188.24,501.22,Single-ply,SBD,M
Boys,124.74+,10,Dezmand Candelarie,North Mesquite,128.28,185.97,127.01,185.97,498.95,Single-ply,SBD,M
Boys,124.74+,11,John Johnson,Lancaster,138.98,133.81,111.13,167.83,412.77,Single-ply,SBD,M
Boys,124.74+,12,Jeremiah Johnson #5,Dallas Life Oak Cliff,127.55,142.88,97.52,142.88,383.29,Single-ply,SBD,M
Boys,124.74+,12,Jeremiah Johnson #5,Dallas Life Oak Cliff,127.55,142.88,97.52,142.88,383.29,Single-ply,SBD,M
Boys,124.74+,13,Taylor Lacy,South Garland,128.91,192.78,108.86,,301.64,Single-ply,SB,M
